{
	"arrow_left": {
		"data": "<svg width=\"10\" height=\"16\" fill=\"none\" xmlns=\"http://www.w3.org/2000/svg\"><path d=\"M8.764 14.25l-7-6.497 7-6.497\" stroke=\"#000\" stroke-width=\"2\" stroke-miterlimit=\"10\" stroke-linecap=\"round\" stroke-linejoin=\"round\"/></svg>",
		"info": {
			"width": "10",
			"height": "16"
		}
	},
	"arrow_right": {
		"data": "<svg width=\"10\" height=\"16\" fill=\"none\" xmlns=\"http://www.w3.org/2000/svg\"><path d=\"M1.58 1.75l7 6.497-7 6.497\" stroke=\"#000\" stroke-width=\"2\" stroke-miterlimit=\"10\" stroke-linecap=\"round\" stroke-linejoin=\"round\"/></svg>",
		"info": {
			"width": "10",
			"height": "16"
		}
	},
	"play": {
		"data": "<svg width=\"16\" height=\"21\" fill=\"none\" xmlns=\"http://www.w3.org/2000/svg\"><path d=\"M15.186 10.531l-14.15 9.641V.891l14.15 9.64z\" fill=\"#fff\"/><path d=\"M1.035 20.815A.642.642 0 1-.643.392 NaNvNaNa.642.642 0 11.398.36 NaN NaNlNaN NaNa.643.643 0 10 1.062 NaN NaNlNaN NaNa.645.645 0 1-.363 NaN NaNzm.643-18.708v16.849l12.366-8.425L1.678 2.107z\" fill=\"#fff\"/></svg>",
		"info": {
			"width": "16",
			"height": "21"
		}
	}
}